<svg width="32" height="24" viewBox="0 0 32 24" fill="none" xmlns="http://www.w3.org/2000/svg">
<path d="M28 24H22C20.8958 24 19.9531 23.6094 19.1719 22.8281C18.3906 22.0469 18 21.1042 18 20V14C18 12.8958 18.3906 11.9531 19.1719 11.1719C19.9531 10.3906 20.8958 10 22 10H26V6C26 5.45833 25.8073 4.98958 25.4219 4.59375C25.0365 4.19792 24.5677 4 24.0156 4C23.4635 4 22.9896 3.80729 22.5938 3.42188C22.1979 3.03646 22 2.56771 22 2.01562C22 1.46354 22.1979 0.989583 22.5938 0.59375C22.9896 0.197917 23.4583 0 24 0H28C28.6458 0 29.2812 0.333333 29.9062 1C30.5312 1.66667 31.0365 2.46875 31.4219 3.40625C31.8073 4.34375 32 5.20833 32 6V20C32 21.1042 31.6094 22.0469 30.8281 22.8281C30.0469 23.6094 29.1042 24 28 24ZM10 24H4C2.89583 24 1.95312 23.6094 1.17188 22.8281C0.390625 22.0469 0 21.1042 0 20V14C0 12.8958 0.390625 11.9531 1.17188 11.1719C1.95312 10.3906 2.89583 10 4 10H8V6C8 5.45833 7.80208 4.98958 7.40625 4.59375C7.01042 4.19792 6.53646 4 5.98438 4C5.43229 4 4.96354 3.80729 4.57812 3.42188C4.19271 3.03646 4 2.56771 4 2.01562C4 1.46354 4.19271 0.989583 4.57812 0.59375C4.96354 0.197917 5.4375 0 6 0H10C10.625 0 11.2552 0.333333 11.8906 1C12.526 1.66667 13.0365 2.46875 13.4219 3.40625C13.8073 4.34375 14 5.20833 14 6V20C14 21.1042 13.6094 22.0469 12.8281 22.8281C12.0469 23.6094 11.1042 24 10 24Z" fill="black"/>
</svg>
